.Xil/Vivado-234336-pc-xiancaima/hw_ila_data_2/zip_work/waveform.vcd
$date
        2025-Feb-08 10:44:57
$end
$version
        Vivado v2021.2 (64-bit)
$end
$timescale
        1ps
$end
$scope module dut $end
$var reg 32 " design_1_i/system_ila_1/inst/net_slot_0_axis_tdata [31:0] $end
$var reg 4 B design_1_i/system_ila_1/inst/net_slot_0_axis_tkeep [3:0] $end
$var reg 1 F design_1_i/system_ila_1/inst/net_slot_0_axis_tvalid $end
$var reg 1 G design_1_i/system_ila_1/inst/net_slot_0_axis_tready $end
$var reg 1 H design_1_i/system_ila_1/inst/net_slot_0_axis_tlast $end
$var reg 3 I Interface__i2_s0___Conn_ [2:0] $end
$var reg 3 L T_Channel__i2_s0___Conn_ [2:0] $end
$var reg 1 O _TRIGGER $end
$var reg 1 P _WINDOW $end
$var reg 1 Q _GAP $end
$upscope $end
$enddefinitions $end
#0
$dumpvars
b0 "
b1111 B
0F
1G
0H
b0 I
b0 L
0O
1P
0Q
$end
#512
1F
b1 I
b1 L
1O
#513
0F
0G
b0 I
b0 L
#514
1F
1G
b1 I
b1 L
#515
0F
0G
b0 I
b0 L
#516
1F
1G
b1 I
b1 L
#517
0F
0G
b0 I
b0 L
#518
1F
1G
b1 I
b1 L
#519
0F
0G
b0 I
b0 L
#520
1F
1G
b1 I
b1 L
#521
0F
0G
b0 I
b0 L
#522
1F
1G
b1 I
b1 L
#523
0F
0G
b0 I
b0 L
#524
1F
1G
b1 I
b1 L
#525
0F
0G
b0 I
b0 L
#526
1F
1G
b1 I
b1 L
#527
0F
0G
b0 I
b0 L
#528
1F
1G
b1 I
b1 L
#529
0F
0G
b0 I
b0 L
#530
1F
1G
b1 I
b1 L
#531
0F
0G
b0 I
b0 L
#532
1F
1G
b1 I
b1 L
#533
0F
0G
b0 I
b0 L
#534
1F
1G
b1 I
b1 L
#535
0F
0G
b0 I
b0 L
#536
1F
1G
b1 I
b1 L
#537
0F
0G
b0 I
b0 L
#538
1F
1G
b1 I
b1 L
#539
0F
0G
b0 I
b0 L
#540
1F
1G
b1 I
b1 L
#541
0F
0G
b0 I
b0 L
#542
1F
1G
b1 I
b1 L
#543
0F
0G
b0 I
b0 L
#544
1F
1G
b1 I
b1 L
#545
0F
0G
b0 I
b0 L
#546
1F
1G
b1 I
b1 L
#547
0F
0G
b0 I
b0 L
#548
1F
1G
b1 I
b1 L
#549
0F
0G
b0 I
b0 L
#550
1F
1G
b1 I
b1 L
#551
0F
0G
b0 I
b0 L
#552
1F
1G
b1 I
b1 L
#553
0F
0G
b0 I
b0 L
#554
1F
1G
b1 I
b1 L
#555
0F
0G
b0 I
b0 L
#556
1F
1G
b1 I
b1 L
#557
0F
0G
b0 I
b0 L
#558
1F
1G
b1 I
b1 L
#559
0F
0G
b0 I
b0 L
#560
1F
1G
b1 I
b1 L
#561
0F
0G
b0 I
b0 L
#562
1F
1G
b1 I
b1 L
#563
0F
0G
b0 I
b0 L
#564
1F
1G
b1 I
b1 L
#565
0F
0G
b0 I
b0 L
#566
1F
1G
b1 I
b1 L
#567
0F
0G
b0 I
b0 L
#568
1F
1G
b1 I
b1 L
#569
0F
0G
b0 I
b0 L
#570
1F
1G
b1 I
b1 L
#571
0F
0G
b0 I
b0 L
#572
1F
1G
b1 I
b1 L
#573
0F
0G
b0 I
b0 L
#574
1F
1G
b1 I
b1 L
#575
0F
0G
b0 I
b0 L
#576
1F
1G
b1 I
b1 L
#577
0F
0G
b0 I
b0 L
#578
1F
1G
b1 I
b1 L
#579
0F
0G
b0 I
b0 L
#580
1F
1G
b1 I
b1 L
#581
0F
0G
b0 I
b0 L
#582
1F
1G
b1 I
b1 L
#583
0F
0G
b0 I
b0 L
#584
1F
1G
b1 I
b1 L
#585
0F
0G
b0 I
b0 L
#586
1F
1G
b1 I
b1 L
#587
0F
0G
b0 I
b0 L
#588
1F
1G
b1 I
b1 L
#589
0F
0G
b0 I
b0 L
#590
1F
1G
b1 I
b1 L
#591
0F
0G
b0 I
b0 L
#592
1F
1G
b1 I
b1 L
#593
0F
0G
b0 I
b0 L
#594
1F
1G
b1 I
b1 L
#595
0F
0G
b0 I
b0 L
#596
1F
1G
b1 I
b1 L
#597
0F
0G
b0 I
b0 L
#598
1F
1G
b1 I
b1 L
#599
0F
0G
b0 I
b0 L
#600
1F
1G
b1 I
b1 L
#601
0F
0G
b0 I
b0 L
#602
1F
1G
b1 I
b1 L
#603
0F
0G
b0 I
b0 L
#604
1F
1G
b1 I
b1 L
#605
0F
0G
b0 I
b0 L
#606
1F
1G
1H
b1 I
b10 L
#607
0F
0G
b0 I
b0 L
#608
1G
